{"failedCount":0,"prefixedPath":"src\/test\/java\/test\/usingconfig.feature","packageQualifiedName":"src.test.java.test.usingconfig","loopIndex":-1,"relativePath":"src\/test\/java\/test\/usingconfig.feature","scenarioResults":[{"sectionIndex":0,"stepResults":[{"result":{"nanos":703500,"millis":0.7035,"status":"passed"},"step":{"background":true,"line":6,"prefix":"*","index":0,"text":"url baseUrl"},"stepLog":"10:57:28.022 The value of env is : null \n"},{"result":{"nanos":649800,"millis":0.6498,"status":"passed"},"step":{"background":true,"line":7,"prefix":"*","index":1,"text":"header Accept = 'application\/json'"}},{"result":{"nanos":289100,"millis":0.2891,"status":"passed"},"step":{"line":10,"prefix":"Given","index":0,"text":"path '\/users?page=2'"}},{"result":{"nanos":699351600,"millis":699.3516,"status":"passed"},"step":{"line":11,"prefix":"When","index":1,"text":"method GET"},"stepLog":"10:57:28.331 request:\n1 > GET https:\/\/reqres.in\/api\/users%3Fpage=2\n1 > Accept: application\/json\n1 > Host: reqres.in\n1 > Connection: Keep-Alive\n1 > User-Agent: Apache-HttpClient\/4.5.13 (Java\/16.0.1)\n1 > Accept-Encoding: gzip,deflate\n\n\n10:57:28.734 response time in milliseconds: 401\n1 < 200\n1 < Date: Wed, 29 Sep 2021 15:57:27 GMT\n1 < Content-Type: application\/json; charset=utf-8\n1 < Transfer-Encoding: chunked\n1 < Connection: keep-alive\n1 < x-powered-by: Express\n1 < access-control-allow-origin: *\n1 < etag: W\/\"2c1-N6Rqerxquq2kgQhL51EiSg4x0R8\"\n1 < via: 1.1 vegur\n1 < Cache-Control: max-age=14400\n1 < CF-Cache-Status: HIT\n1 < Age: 90\n1 < Expect-CT: max-age=604800, report-uri=\"https:\/\/report-uri.cloudflare.com\/cdn-cgi\/beacon\/expect-ct\"\n1 < Report-To: {\"endpoints\":[{\"url\":\"https:\\\/\\\/a.nel.cloudflare.com\\\/report\\\/v3?s=HhhQlhMCDEA7RZYXYVHIXdidGEQrZVMS5w7gyNrgvMe%2FVLkWbGExmnr9U%2BxEt%2B6bdbIPs7LRJ116dgyyagb0t8ZGAAiRW6MZmYeQT3uIDN03hTaaNRZ1gwSsxVU%3D\"}],\"group\":\"cf-nel\",\"max_age\":604800}\n1 < NEL: {\"success_fraction\":0,\"report_to\":\"cf-nel\",\"max_age\":604800}\n1 < Vary: Accept-Encoding\n1 < Server: cloudflare\n1 < CF-RAY: 69666844787b2986-ORD\n1 < alt-svc: h3=\":443\"; ma=86400, h3-29=\":443\"; ma=86400, h3-28=\":443\"; ma=86400, h3-27=\":443\"; ma=86400\n{\"page\":1,\"per_page\":6,\"total\":12,\"total_pages\":2,\"data\":[{\"id\":1,\"name\":\"cerulean\",\"year\":2000,\"color\":\"#98B2D1\",\"pantone_value\":\"15-4020\"},{\"id\":2,\"name\":\"fuchsia rose\",\"year\":2001,\"color\":\"#C74375\",\"pantone_value\":\"17-2031\"},{\"id\":3,\"name\":\"true red\",\"year\":2002,\"color\":\"#BF1932\",\"pantone_value\":\"19-1664\"},{\"id\":4,\"name\":\"aqua sky\",\"year\":2003,\"color\":\"#7BC4C4\",\"pantone_value\":\"14-4811\"},{\"id\":5,\"name\":\"tigerlily\",\"year\":2004,\"color\":\"#E2583E\",\"pantone_value\":\"17-1456\"},{\"id\":6,\"name\":\"blue turquoise\",\"year\":2005,\"color\":\"#53B0AE\",\"pantone_value\":\"15-5217\"}],\"support\":{\"url\":\"https:\/\/reqres.in\/#support-heading\",\"text\":\"To keep ReqRes free, contributions towards server costs are appreciated!\"}}\n"},{"result":{"nanos":18000,"millis":0.018,"status":"passed"},"step":{"line":12,"prefix":"Then","index":2,"text":"status 200"}}],"executorName":"main","line":9,"name":"config demo 1","description":"","durationMillis":701.012,"startTime":1632931047884,"failed":false,"refId":"[1:9]","endTime":1632931048757,"exampleIndex":-1}],"callDepth":0,"name":"karate demo","description":"","resultDate":"2021-09-29 10:57:28 AM","durationMillis":701.012,"passedCount":1}